{
    "_id": "566751815dcbc186f0536bd3",
    "tags": [
        "arcane enhancements"
    ],
    "icon": "icons/en/Arcane_Precision.9947891b2c40889b5ae96ea6987df9c1.png",
    "thumb": "icons/en/thumbs/Arcane_Precision.9947891b2c40889b5ae96ea6987df9c1.128x128.png",
    "icon_format": "land",
    "url_name": "arcane_precision",
    "tradable": true,
    "en": {
        "item_name": "Arcane Precision",
        "description": "<p>Arcane Precision is an Arcane Enhancement that provides a chance whenever the player upon achieving a headshot to increase Damage on Secondaries for a short time.</p>",
        "wiki_link": "http://warframe.wikia.com/wiki/Arcane_Precision",
        "drop": []
    },
    "ru": {
        "item_name": "Мистическая Точность",
        "description": "<p>При попадании в голову шанс увеличить урон для пистолетов.</p>",
        "wiki_link": "http://ru.warframe.wikia.com/wiki/%D0%9C%D0%B8%D1%81%D1%82%D0%B8%D1%87%D0%B5%D1%81%D0%BA%D0%B0%D1%8F_%D0%A2%D0%BE%D1%87%D0%BD%D0%BE%D1%81%D1%82%D1%8C",
        "drop": []
    },
    "ko": {
        "item_name": "아케인 프리지션",
        "description": "<p>Arcane Precision is an Arcane Enhancement that provides a chance whenever the player upon achieving a headshot to increase Damage on Secondaries for a short time.</p>",
        "wiki_link": "http://warframe.wikia.com/wiki/Arcane_Precision",
        "drop": []
    },
    "rarity": "rare",
    "mod_max_rank": 3,
    "trading_tax": 8000
}