{
    "_id": "5667510e5dcbc186f0536bd0",
    "tags": [
        "arcane enhancements"
    ],
    "icon": "icons/en/Arcane_Consequence.f4e12b34a7b31c72f5fa1b042f6ae6e9.png",
    "thumb": "icons/en/thumbs/Arcane_Consequence.f4e12b34a7b31c72f5fa1b042f6ae6e9.128x128.png",
    "icon_format": "land",
    "url_name": "arcane_consequence",
    "tradable": true,
    "en": {
        "item_name": "Arcane Consequence",
        "description": "<p>Arcane Consequence is an Arcane Enhancement that provides a chance whenever the player upon achieving a headshot to increase Wall Latch and Aim Glide for a short time. </p>",
        "wiki_link": "http://warframe.wikia.com/wiki/Arcane_Consequence",
        "drop": []
    },
    "ru": {
        "item_name": "Мистическое Последствие",
        "description": "<p>При попадании в голову шанс увеличить длительность полета/удерживания на стене.</p>",
        "wiki_link": "http://ru.warframe.wikia.com/wiki/%D0%9C%D0%B8%D1%81%D1%82%D0%B8%D1%87%D0%B5%D1%81%D0%BA%D0%BE%D0%B5_%D0%9F%D0%BE%D1%81%D0%BB%D0%B5%D0%B4%D1%81%D1%82%D0%B2%D0%B8%D0%B5",
        "drop": []
    },
    "ko": {
        "item_name": "아케인 콘시퀀스",
        "description": "<p>Arcane Consequence is an Arcane Enhancement that provides a chance whenever the player upon achieving a headshot to increase Wall Latch and Aim Glide for a short time. </p>",
        "wiki_link": "http://warframe.wikia.com/wiki/Arcane_Consequence",
        "drop": []
    },
    "rarity": "common",
    "mod_max_rank": 3,
    "trading_tax": 2000
}