{
    "_id": "55a46ad5e77989029d9706ee",
    "tags": [
        "arcane enhancements"
    ],
    "icon": "icons/en/Arcane_Victory.2e3e7da2e7600a0e376eae98c3fd80a9.png",
    "thumb": "icons/en/thumbs/Arcane_Victory.2e3e7da2e7600a0e376eae98c3fd80a9.128x128.png",
    "icon_format": "land",
    "url_name": "arcane_victory",
    "tradable": true,
    "en": {
        "item_name": "Arcane Victory",
        "description": "<p>Arcane Victory is an Arcane Enhancement that upon achieving a headshot provides a chance to gain health regeneration for a short time.</p>",
        "wiki_link": "http://warframe.wikia.com/wiki/Arcane_Victory",
        "drop": []
    },
    "ru": {
        "item_name": "Мистическая победа",
        "description": "<p>Мистическая Победа - редкий мистификатор, который восстанавливает 0,5% здоровья в течение 2-ух секунд при попадании в голову с шансом 2%. На максимальном ранге мистификатора бонус к восстановлению здоровья составляет 2% в течение 8 секунд, а шанс срабатывания составляет 8%.</p>",
        "wiki_link": "http://ru.warframe.wikia.com/wiki/%D0%9C%D0%B8%D1%81%D1%82%D0%B8%D1%87%D0%B5%D1%81%D0%BA%D0%B0%D1%8F_%D0%BF%D0%BE%D0%B1%D0%B5%D0%B4%D0%B0",
        "drop": []
    },
    "ko": {
        "item_name": "아케인 빅토리",
        "description": "<p>Arcane Victory is an Arcane Enhancement that upon achieving a headshot provides a chance to gain health regeneration for a short time.</p>",
        "wiki_link": "http://warframe.wikia.com/wiki/Arcane_Victory",
        "drop": []
    },
    "rarity": "uncommon",
    "mod_max_rank": 3,
    "trading_tax": 4000
}