{
    "_id": "551085a6e77989729ab10a35",
    "tags": [
        "arcane enhancements"
    ],
    "icon": "icons/en/Arcane_Awakening.5d194d91360b233f4226fd02af5d7d1d.png",
    "thumb": "icons/en/thumbs/Arcane_Awakening.5d194d91360b233f4226fd02af5d7d1d.128x128.png",
    "icon_format": "land",
    "url_name": "arcane_awakening",
    "tradable": true,
    "en": {
        "item_name": "Arcane Awakening",
        "description": "<p>Arcane Awakening is an Arcane Enhancement that provides a chance on reloading any weapon to increase the damage of secondary weapons for a short time.</p>",
        "wiki_link": "http://warframe.wikia.com/wiki/Arcane_Awakening",
        "drop": []
    },
    "ru": {
        "item_name": "Мистическое Пробуждение",
        "description": "<p>Мистическое Пробуждение - обычный мистификатор, который увеличивает урон вторичного оружия на 15% при перезарядке в течение 4-ёх секунд с шансом 3%. На максимальном ранге мистификатора бонус к урону вторичного составляет 60% в течение 16 секунд, а шанс срабатывания 12%.</p>",
        "wiki_link": "http://ru.warframe.wikia.com/wiki/%D0%9C%D0%B8%D1%81%D1%82%D0%B8%D1%87%D0%B5%D1%81%D0%BA%D0%BE%D0%B5_%D0%9F%D1%80%D0%BE%D0%B1%D1%83%D0%B6%D0%B4%D0%B5%D0%BD%D0%B8%D0%B5",
        "drop": []
    },
    "ko": {
        "item_name": "아케인 어웨이크닝",
        "description": "<p>Arcane Awakening is an Arcane Enhancement that provides a chance on reloading any weapon to increase the damage of secondary weapons for a short time.</p>",
        "wiki_link": "http://warframe.wikia.com/wiki/Arcane_Awakening",
        "drop": []
    },
    "rarity": "uncommon",
    "mod_max_rank": 3,
    "trading_tax": 4000
}