{
    "_id": "5510859ce779897292ba1efc",
    "tags": [
        "arcane enhancements"
    ],
    "icon": "icons/en/Arcane_Avenger.181b3606583aa0b904a1ebf0b6864e82.png",
    "thumb": "icons/en/thumbs/Arcane_Avenger.181b3606583aa0b904a1ebf0b6864e82.128x128.png",
    "icon_format": "land",
    "url_name": "arcane_avenger",
    "tradable": true,
    "en": {
        "item_name": "Arcane Avenger",
        "description": "<p>Arcane Avenger is an Arcane Enhancement that provides a chance whenever the player receives damage to increase the critical chance of all attacks for a short time.</p>",
        "wiki_link": "http://warframe.wikia.com/wiki/Arcane_Avenger",
        "drop": []
    },
    "ru": {
        "item_name": "Мистический мститель",
        "description": "<p>Мистический мститель — необычный мистификатор, который увеличивает шанс критического попадания всех атак на 7.5% в течение 2-х секунд при получении урона с шансом 3.5%. На максимальном ранге мистификатора шанс критического попадания составляет 30% в течение 8 секунд, а шанс срабатывания 14%.</p>",
        "wiki_link": "http://ru.warframe.wikia.com/wiki/%D0%9C%D0%B8%D1%81%D1%82%D0%B8%D1%87%D0%B5%D1%81%D0%BA%D0%B8%D0%B9_%D0%BC%D1%81%D1%82%D0%B8%D1%82%D0%B5%D0%BB%D1%8C",
        "drop": []
    },
    "ko": {
        "item_name": "아케인 어벤저",
        "description": "<p>Arcane Avenger is an Arcane Enhancement that provides a chance whenever the player receives damage to increase the critical chance of all attacks for a short time.</p>",
        "wiki_link": "http://warframe.wikia.com/wiki/Arcane_Avenger",
        "drop": []
    },
    "rarity": "rare",
    "mod_max_rank": 3,
    "trading_tax": 8000
}