{
    "_id": "5dff6e111456970316674a19",
    "tags": [
        "avionic"
    ],
    "icon": "icons/en/maxima_(zetki).ff5f23593d0850514dd7b63c3a16d8c9.png",
    "thumb": "icons/en/thumbs/maxima_(zetki).ff5f23593d0850514dd7b63c3a16d8c9.128x128.png",
    "icon_format": "port",
    "url_name": "maxima_(zetki)",
    "tradable": true,
    "en": {
        "item_name": "Maxima (Zetki)",
        "description": "A Integrated Avionics that increases Max Shields.  Drops from Kosma Flak (1.106%), Exo Flak (3.794% + 0.101%), Elite Kosma Flak (3.794%), and Elite Exo Flak (3.794%).  This avionic is listed twice under the Exo Flak's drop table.",
        "wiki_link": "https://warframe.fandom.com/wiki/Avionics#Maxima",
        "drop": [
            {
                "name": "Kosma Flak",
                "link": null
            },
            {
                "name": "Exo Flak",
                "link": null
            },
            {
                "name": "Exo Flak",
                "link": null
            },
            {
                "name": "Elite Kosma Flak",
                "link": null
            },
            {
                "name": "Elite Exo Flak",
                "link": null
            }
        ]
    },
    "ru": {
        "item_name": "Maxima (Zetki)",
        "description": "A Integrated Avionics that increases Max Shields.  Drops from Kosma Flak (1.106%), Exo Flak (3.794% + 0.101%), Elite Kosma Flak (3.794%), and Elite Exo Flak (3.794%).  This avionic is listed twice under the Exo Flak's drop table.",
        "wiki_link": "https://warframe.fandom.com/wiki/Avionics#Maxima",
        "drop": [
            {
                "name": "Kosma Flak",
                "link": null
            },
            {
                "name": "Exo Flak",
                "link": null
            },
            {
                "name": "Exo Flak",
                "link": null
            },
            {
                "name": "Elite Kosma Flak",
                "link": null
            },
            {
                "name": "Elite Exo Flak",
                "link": null
            }
        ]
    },
    "ko": {
        "item_name": "Maxima (Zetki)",
        "description": "A Integrated Avionics that increases Max Shields.  Drops from Kosma Flak (1.106%), Exo Flak (3.794% + 0.101%), Elite Kosma Flak (3.794%), and Elite Exo Flak (3.794%).  This avionic is listed twice under the Exo Flak's drop table.",
        "wiki_link": "https://warframe.fandom.com/wiki/Avionics#Maxima",
        "drop": [
            {
                "name": "Kosma Flak",
                "link": null
            },
            {
                "name": "Exo Flak",
                "link": null
            },
            {
                "name": "Exo Flak",
                "link": null
            },
            {
                "name": "Elite Kosma Flak",
                "link": null
            },
            {
                "name": "Elite Exo Flak",
                "link": null
            }
        ]
    },
    "mod_max_rank": 7
}