{
    "_id": "5dff6e111456970316674a0b",
    "tags": [
        "avionic"
    ],
    "icon": "icons/en/section_density_(zetki).ff5f23593d0850514dd7b63c3a16d8c9.png",
    "thumb": "icons/en/thumbs/section_density_(zetki).ff5f23593d0850514dd7b63c3a16d8c9.128x128.png",
    "icon_format": "port",
    "url_name": "section_density_(zetki)",
    "tradable": true,
    "en": {
        "item_name": "Section Density (Zetki)",
        "description": "A Integrated Avionics that increase all Turret Critical Damage.  Drops from Exo Cutter (0.101%), Kosma Outrider (0.201%), and Elite Exo Flak (2.211%).",
        "wiki_link": "https://warframe.fandom.com/wiki/Avionics#Section_Density",
        "drop": [
            {
                "name": "Exo Cutter",
                "link": null
            },
            {
                "name": "Kosma Outrider",
                "link": null
            },
            {
                "name": "Elite Exo Flak",
                "link": null
            }
        ]
    },
    "ru": {
        "item_name": "Section Density (Zetki)",
        "description": "A Integrated Avionics that increase all Turret Critical Damage.  Drops from Exo Cutter (0.101%), Kosma Outrider (0.201%), and Elite Exo Flak (2.211%).",
        "wiki_link": "https://warframe.fandom.com/wiki/Avionics#Section_Density",
        "drop": [
            {
                "name": "Exo Cutter",
                "link": null
            },
            {
                "name": "Kosma Outrider",
                "link": null
            },
            {
                "name": "Elite Exo Flak",
                "link": null
            }
        ]
    },
    "ko": {
        "item_name": "Section Density (Zetki)",
        "description": "A Integrated Avionics that increase all Turret Critical Damage.  Drops from Exo Cutter (0.101%), Kosma Outrider (0.201%), and Elite Exo Flak (2.211%).",
        "wiki_link": "https://warframe.fandom.com/wiki/Avionics#Section_Density",
        "drop": [
            {
                "name": "Exo Cutter",
                "link": null
            },
            {
                "name": "Kosma Outrider",
                "link": null
            },
            {
                "name": "Elite Exo Flak",
                "link": null
            }
        ]
    },
    "mod_max_rank": 7
}