{
    "_id": "5dff6e1014569703166749d6",
    "tags": [
        "avionic"
    ],
    "icon": "icons/en/thermatic_(vidar).ff5f23593d0850514dd7b63c3a16d8c9.png",
    "thumb": "icons/en/thumbs/thermatic_(vidar).ff5f23593d0850514dd7b63c3a16d8c9.128x128.png",
    "icon_format": "port",
    "url_name": "thermatic_(vidar)",
    "tradable": true,
    "en": {
        "item_name": "Thermatic (Vidar)",
        "description": "A Integrated Avionics that reduces Frost damage.  Drops from Exo Taktis (2.211%), Gyre Taktis (3.794%), and Elite Gyre Cutter (2.211%).",
        "wiki_link": "https://warframe.fandom.com/wiki/Avionics#Thermatic",
        "drop": [
            {
                "name": "Exo Taktis",
                "link": null
            },
            {
                "name": "Gyre Taktis",
                "link": null
            },
            {
                "name": "Elite Gyre Cutter",
                "link": null
            }
        ]
    },
    "ru": {
        "item_name": "Thermatic (Vidar)",
        "description": "A Integrated Avionics that reduces Frost damage.  Drops from Exo Taktis (2.211%), Gyre Taktis (3.794%), and Elite Gyre Cutter (2.211%).",
        "wiki_link": "https://warframe.fandom.com/wiki/Avionics#Thermatic",
        "drop": [
            {
                "name": "Exo Taktis",
                "link": null
            },
            {
                "name": "Gyre Taktis",
                "link": null
            },
            {
                "name": "Elite Gyre Cutter",
                "link": null
            }
        ]
    },
    "ko": {
        "item_name": "Thermatic (Vidar)",
        "description": "A Integrated Avionics that reduces Frost damage.  Drops from Exo Taktis (2.211%), Gyre Taktis (3.794%), and Elite Gyre Cutter (2.211%).",
        "wiki_link": "https://warframe.fandom.com/wiki/Avionics#Thermatic",
        "drop": [
            {
                "name": "Exo Taktis",
                "link": null
            },
            {
                "name": "Gyre Taktis",
                "link": null
            },
            {
                "name": "Elite Gyre Cutter",
                "link": null
            }
        ]
    },
    "mod_max_rank": 4
}