{
    "_id": "5dff6e111456970316674a0e",
    "tags": [
        "avionic"
    ],
    "icon": "icons/en/void_hole.ff5f23593d0850514dd7b63c3a16d8c9.png",
    "thumb": "icons/en/thumbs/void_hole.ff5f23593d0850514dd7b63c3a16d8c9.128x128.png",
    "icon_format": "port",
    "url_name": "void_hole",
    "tradable": true,
    "en": {
        "item_name": "Void Hole",
        "description": "A Battle Avionics that creates a large black hole that sucks in enemies and deals continous damage every second to all enemies inside",
        "wiki_link": "https://warframe.fandom.com/wiki/Avionics#Void_Hole",
        "drop": [
            {
                "name": "Exo Outrider",
                "link": null
            }
        ]
    },
    "ru": {
        "item_name": "Void Hole",
        "description": "A Battle Avionics that creates a large black hole that sucks in enemies and deals continous damage every second to all enemies inside",
        "wiki_link": "https://warframe.fandom.com/wiki/Avionics#Void_Hole",
        "drop": [
            {
                "name": "Exo Outrider",
                "link": null
            }
        ]
    },
    "ko": {
        "item_name": "Void Hole",
        "description": "A Battle Avionics that creates a large black hole that sucks in enemies and deals continous damage every second to all enemies inside",
        "wiki_link": "https://warframe.fandom.com/wiki/Avionics#Void_Hole",
        "drop": [
            {
                "name": "Exo Outrider",
                "link": null
            }
        ]
    },
    "mod_max_rank": 4
}