{
    "_id": "5c5ca81a96e8d2003834fe6b",
    "url_name": "critical_chance",
    "group": "default",
    "prefix": "Crita",
    "suffix": "Cron",
    "positive_is_negative": false,
    "exclusive_to": null,
    "en": {
        "effect": "Critical Chance"
    },
    "ru": {
        "effect": "Шанс критического урона"
    },
    "ko": {
        "effect": "치명타 확률"
    }
}