{
    "_id": "5c5ca81a96e8d2003834fe7e",
    "url_name": "status_duration",
    "group": "default",
    "prefix": "Deci",
    "suffix": "Des",
    "positive_is_negative": false,
    "exclusive_to": null,
    "en": {
        "effect": "Status Duration"
    },
    "ru": {
        "effect": "Длительность статуса"
    },
    "ko": {
        "effect": "상태이상 지속 시간"
    }
}